[{
  "id": 1,
  "fecha": "3/29/2020",
  "importe": 92,
  "latitud": -7.4234223,
  "longitud": 108.7422767,
  "ciudad": "Mulyadadi"
}, {
  "id": 2,
  "fecha": "3/11/2020",
  "importe": 59,
  "latitud": -17.6509195,
  "longitud": -149.4260421,
  "ciudad": "Tohautu"
}, {
  "id": 3,
  "fecha": "2/15/2020",
  "importe": 84,
  "latitud": 13.3656061,
  "longitud": 123.3810275,
  "ciudad": "Masoli"
}, {
  "id": 4,
  "fecha": "10/28/2019",
  "importe": 65,
  "latitud": 36.545015,
  "longitud": 104.138586,
  "ciudad": "Baiyin"
}, {
  "id": 5,
  "fecha": "9/4/2019",
  "importe": 47,
  "latitud": 39.8007621,
  "longitud": 116.504048,
  "ciudad": "Dabaozi"
}, {
  "id": 6,
  "fecha": "7/16/2019",
  "importe": 75,
  "latitud": 22.251924,
  "longitud": 112.794065,
  "ciudad": "Xitieshan"
}, {
  "id": 7,
  "fecha": "9/21/2019",
  "importe": 74,
  "latitud": 30.4649282,
  "longitud": -84.3857442,
  "ciudad": "Tallahassee"
}, {
  "id": 8,
  "fecha": "8/16/2019",
  "importe": 87,
  "latitud": 47.4912362,
  "longitud": 19.0858151,
  "ciudad": "Budapest"
}, {
  "id": 9,
  "fecha": "2/4/2020",
  "importe": 27,
  "latitud": 33.4658131,
  "longitud": -112.0244867,
  "ciudad": "Phoenix"
}, {
  "id": 10,
  "fecha": "10/17/2019",
  "importe": 33,
  "latitud": -31.5327537,
  "longitud": 27.7080133,
  "ciudad": "Cala"
}]
